Estimation of Direct and Indirect Storage, Ramuschaka
…
direct_indirect %>%
  mutate(cum_et = cumsum(E_p))

## # A tibble: 139 x 9
##    date       mean_daily_q_mm cum_p cum_q      d_s   i_s total   E_p cum_et
##    <date>               <dbl> <dbl> <dbl>    <dbl> <dbl> <dbl> <dbl>  <dbl>
##  1 2018-10-01           0.290   0   0     0         0     0     0      0   
##  2 2018-10-02           0.287   0   0.287 0         0     0     0      0   
##  3 2018-10-03           0.246   0   0.533 0         0     0     0      0   
##  4 2018-10-04           0.353   0.8 0.887 0.00123   0     0     0      0   
##  5 2018-10-05           0.203   0.8 1.09  0         0     0     0      0   
##  6 2018-10-06           0.221   1   1.31  0         0     0     0      0   
##  7 2018-10-07           0.392   9   1.70  0.00168   4.50  4.50  2.80   2.80
##  8 2018-10-08           0.206   9   1.91  0.000547  2.34  2.34  4.75   7.55
##  9 2018-10-09           0.219   9   2.13  0         2.74  2.74  4.13  11.7 
## 10 2018-10-10           0.228   9   2.36  0         1.67  1.67  4.97  16.6 
## #  with 129 more rows
